…
- Only show the first 10 rows and all the columns that fit on the screen with
additional columns shown at the bottom.
- Each column is labelled with its type, abbreviated to three or four letters
- Wide columns are truncated to avoid long strings occupying an entire row.
- Color is used to highlight important information in console environments that support it.

```{r}
#| echo: true
#| eval: false

dplyr::starwars

#> # A tibble: 87 × 14
#>    name  height  mass hair_color skin_color eye_color birth_year
#>    <chr>  <int> <dbl> <chr>      <chr>      <chr>          <dbl>
#>  1 Luke…    172    77 blond      fair       blue            19
#>  2 C-3PO    167    75 NA         gold       yellow         112
#>  3 R2-D2     96    32 NA         white, bl… red             33
#>  4 Dart…    202   136 none       white      yellow          41.9
#>  5 Leia…    150    49 brown      light      brown           19
#>  6 Owen…    178   120 brown, gr… light      blue            52
#>  7 Beru…    165    75 brown      light      blue            47
#>  8 R5-D4     97    32 NA         white, red red             NA
#>  9 Bigg…    183    84 black      light      brown           24
#> 10 Obi-…    182    77 auburn, w… fair       blue-gray       57
#> # ℹ 77 more rows
#> # ℹ 7 more variables: sex <chr>, gender <chr>, homeworld <chr>,
#> #   species <chr>, films <list>, vehicles <list>, starships <list>
#> # ℹ Use `print(n = ...)` to see more rows
…
