…
## Logical Vectors

Commonly created with a numeric comparison operator like `<`, `<=`, `>`, `>=`,
`!=`, and `==` inside **dplyr::filter**.

```{r}
flights <- nycflights13::flights

flights |>
  dplyr::filter(dep_time > 600 & dep_time < 2000 & abs(arr_delay) < 20)

#> A tibble: 172,286 × 19
#>    year month   day dep_time sched_dep_time dep_delay arr_time
#>   <int> <int> <int>    <int>          <int>     <dbl>    <int>
#> 1  2013     1     1      601            600         1      844
#> 2  2013     1     1      602            610        -8      812
#> 3  2013     1     1      602            605        -3      821
#> 4  2013     1     1      606            610        -4      858
#> 5  2013     1     1      606            610        -4      837
#> 6  2013     1     1      607            607         0      858
#> 7  2013     1     1      611            600        11      945
#> 8  2013     1     1      613            610         3      925
#> 9  2013     1     1      615            615         0      833
#>10  2013     1     1      622            630        -8     1017
#> # ℹ 172,276 more rows
#> # ℹ 12 more variables: sched_arr_time <int>, arr_delay <dbl>,
#> #   carrier <chr>, flight <int>, tailnum <chr>, origin <chr>,
#> #   dest <chr>, air_time <dbl>, distance <dbl>, hour <dbl>,
#> #   minute <dbl>, time_hour <dttm>
#> # ℹ Use `print(n = ...)` to see more rows
```

## Keep Logical Vectors with Mutate

Create logicial variables before filtering may be useful for more complicated
logic.

```{r}
flights |>
  dplyr::mutate(
    daytime = dep_time > 600 & dep_time < 2000,
    approx_ontime = abs(arr_delay) < 20,
    .keep = "used"
  )

#> # A tibble: 336,776 × 4
#>    dep_time arr_delay daytime approx_ontime
#>       <int>     <dbl> <lgl>   <lgl>
#>  1      517        11 FALSE   TRUE
#>  2      533        20 FALSE   FALSE
#>  3      542        33 FALSE   FALSE
#>  4      544       -18 FALSE   TRUE
#>  5      554       -25 FALSE   FALSE
#>  6      554        12 FALSE   TRUE
#>  7      555        19 FALSE   TRUE
#>  8      557       -14 FALSE   TRUE
#>  9      557        -8 FALSE   TRUE
#> 10      558         8 FALSE   TRUE
#> # ℹ 336,766 more rows
#> # ℹ Use `print(n = ...)` to see more rows
```
…
Since filtering with **variable == NA** returns **NA** rather than **TRUE** or **FALSE**, it
cannot be used to identify missing values. Instead, use the `is.na()` function to
test whether a value is missing.

```{r}
is.na(c(TRUE, NA, FALSE))
#> [1] FALSE TRUE FALSE

flights |>
  dplyr::filter(is.na(dep_time))

#> # A tibble: 8,255 × 19
#>     year month   day dep_time sched_dep_time dep_delay arr_time
#>    <int> <int> <int>    <int>          <int>     <dbl>    <int>
#>  1  2013     1     1       NA           1630        NA       NA
#>  2  2013     1     1       NA           1935        NA       NA
#>  3  2013     1     1       NA           1500        NA       NA
#>  4  2013     1     1       NA            600        NA       NA
#>  5  2013     1     2       NA           1540        NA       NA
#>  6  2013     1     2       NA           1620        NA       NA
#>  7  2013     1     2       NA           1355        NA       NA
#>  8  2013     1     2       NA           1420        NA       NA
#>  9  2013     1     2       NA           1321        NA       NA
#> 10  2013     1     2       NA           1545        NA       NA
#> # ℹ 8,245 more rows
#> # ℹ 12 more variables: sched_arr_time <int>, arr_delay <dbl>,
#> #   carrier <chr>, flight <int>, tailnum <chr>, origin <chr>,
#> #   dest <chr>, air_time <dbl>, distance <dbl>, hour <dbl>,
#> #   minute <dbl>, time_hour <dttm>
#> # ℹ Use `print(n = ...)` to see more rows
```
…
Two main logical summaries exist:

- **any** is the equivalent of `|`
- **all** is the equivalent of `&`

```{r}
flights |>
  dplyr::group_by(year, month, day) |>
  dplyr::summarise(
    all_delayed = all(dep_delay <= 60, na.rm = TRUE),
    any_long_delay = any(arr_delay >= 300, na.rm = TRUE),
    .groups = "drop"
  )

#> A tibble: 365 × 5
#> # Groups:   year, month [12]
#>     year month   day all_delayed any_long_delay
#>    <int> <int> <int> <lgl>       <lgl>
#>  1  2013     1     1 FALSE       TRUE
#>  2  2013     1     2 FALSE       TRUE
#>  3  2013     1     3 FALSE       FALSE
#>  4  2013     1     4 FALSE       FALSE
#>  5  2013     1     5 FALSE       TRUE
#>  6  2013     1     6 FALSE       FALSE
#>  7  2013     1     7 FALSE       TRUE
#>  8  2013     1     8 FALSE       FALSE
#>  9  2013     1     9 FALSE       TRUE
#> 10  2013     1    10 FALSE       TRUE
#> # ℹ 355 more rows
#> # ℹ Use `print(n = ...)` to see more rows
```
…
A logical vector in a numeric context becomes **1** for TRUE and **0** for
FALSE. This makes functions like `sum` and `mean` useful with logical vectors as
they give the number and proportion of TRUE values.

```{r}
flights |>
  dplyr::group_by(year, month, day) |>
  dplyr::summarize(
    proportion_delayed = mean(dep_delay <= 60, na.rm = TRUE),
    count_long_delay = sum(arr_delay >= 300, na.rm = TRUE),
    .groups = "drop"
  )

#> # A tibble: 365 × 5
#>     year month   day proportion_delayed count_long_delay
#>    <int> <int> <int>              <dbl>            <int>
#>  1  2013     1     1              0.939                3
#>  2  2013     1     2              0.914                3
#>  3  2013     1     3              0.941                0
#>  4  2013     1     4              0.953                0
#>  5  2013     1     5              0.964                1
#>  6  2013     1     6              0.959                0
#>  7  2013     1     7              0.956                1
#>  8  2013     1     8              0.975                0
#>  9  2013     1     9              0.986                1
#> 10  2013     1    10              0.977                2
#> # ℹ 355 more rows
#> # ℹ Use `print(n = ...)` to see more rows
```
…
## Counting Numbers

Counts of character or factor variables are great for data exploration and
checks during analysis. You can optionally **sort** to see the most common
values.

```{r}
dplyr::count(flights, dest, sort = TRUE)

#> # A tibble: 105 × 2
#>    dest      n
#>    <chr> <int>
#>  1 ORD   17283
#>  2 ATL   17215
#>  3 LAX   16174
#>  4 BOS   15508
#>  5 MCO   14082
#>  6 CLT   14064
#>  7 SFO   13331
#>  8 FLL   12055
#>  9 MIA   11728
#> 10 DCA    9705
#> # ℹ 95 more rows
#> # ℹ Use `print(n = ...)` to see more rows
```

You can accomplish the same computation using `dplyr::summarize` which allows
you to compute other summaries at the same time.

```{r}
flights |>
  dplyr::group_by(dest) |>
  dplyr::summarise(
    n = dplyr::n(),
    delay = mean(arr_delay, na.rm = TRUE)
  ) |>
  dplyr::arrange(dplyr::desc(n))

#> # A tibble: 105 × 3
#>    dest      n  delay
#>    <chr> <int>  <dbl>
#>  1 ORD   17283  5.88
#>  2 ATL   17215 11.3
#>  3 LAX   16174  0.547
#>  4 BOS   15508  2.91
#>  5 MCO   14082  5.45
#>  6 CLT   14064  7.36
#>  7 SFO   13331  2.67
#>  8 FLL   12055  8.08
#>  9 MIA   11728  0.299
#> 10 DCA    9705  9.07
#> # ℹ 95 more rows
#> # ℹ Use `print(n = ...)` to see more rows
```
…
:::

## Counting Matches

```{r}
tibble::tibble(fruit = fruit) |>
  dplyr::mutate(
    vowels = stringr::str_count(fruit, "[aeiou]"),
    consonants = stringr::str_count(fruit, "[^aeiou]")
  )

#> # A tibble: 80 × 3
#>    fruit        vowels consonants
#>    <chr>         <int>      <int>
#>  1 apple             2          3
#>  2 apricot           3          4
#>  3 avocado           4          3
#>  4 banana            3          3
#>  5 bell pepper       3          8
#>  6 bilberry          2          6
#>  7 blackberry        2          8
#>  8 blackcurrant      3          9
#>  9 blood orange      5          7
#> 10 blueberry         3          6
#> # ℹ 70 more rows
#> # ℹ Use `print(n = ...)` to see more rows
```
…
## Creating Dates from Components

```{r}
flights <- nycflights13::flights

flights |>
  dplyr::select(year, month, day, hour, minute) |>
  dplyr::mutate(
    departure = lubridate::make_datetime(year, month, day, hour, minute)
  )

#> # A tibble: 336,776 × 6
#>     year month   day  hour minute departure
#>    <int> <int> <int> <dbl>  <dbl> <dttm>
#>  1  2013     1     1     5     15 2013-01-01 05:15:00
#>  2  2013     1     1     5     29 2013-01-01 05:29:00
#>  3  2013     1     1     5     40 2013-01-01 05:40:00
#>  4  2013     1     1     5     45 2013-01-01 05:45:00
#>  5  2013     1     1     6      0 2013-01-01 06:00:00
#>  6  2013     1     1     5     58 2013-01-01 05:58:00
#>  7  2013     1     1     6      0 2013-01-01 06:00:00
#>  8  2013     1     1     6      0 2013-01-01 06:00:00
#>  9  2013     1     1     6      0 2013-01-01 06:00:00
#> 10  2013     1     1     6      0 2013-01-01 06:00:00
#> # ℹ 336,766 more rows
#> # ℹ Use `print(n = ...)` to see more rows
```
…
